The Office episodes dataset Exploratory Data Analysis
================

# Abstract

In the following analysis I will try to draw some interesting insights
for [The Office](https://www.imdb.com/title/tt0386676/) series through
descriptive analysis and text mining.

</br>

# Explore the Data

    ## # A tibble: 188 x 10
    ##    EpisodeID Season EpisodeTitle      About    Ratings Votes Viewership Duration
    ##        <dbl> <fct>  <chr>             <chr>      <dbl> <dbl>      <dbl>    <dbl>
    ##  1         0 1      Pilot             The pre~     7.5  4936      11.2        23
    ##  2         1 1      Diversity Day     Michael~     8.3  4801       6          23
    ##  3         2 1      Health Care       Michael~     7.8  4024       5.8        22
    ##  4         3 1      The Alliance      Just fo~     8.1  3915       5.4        23
    ##  5         4 1      Basketball        Michael~     8.4  4294       5          23
    ##  6         5 1      Hot Girl          Michael~     7.7  3854       4.8        23
    ##  7         6 2      The Dundies       Very mu~     8.7  4315       9          21
    ##  8         7 2      Sexual Harassment The off~     8.2  3665       7.13       22
    ##  9         8 2      Office Olympics   Ready t~     8.4  3665       8.3        22
    ## 10         9 2      The Fire          A fire ~     8.4  3607       7.6        22
    ## # ... with 178 more rows, and 2 more variables: AirDate <date>, Writers <chr>
…
