…
</br>

## The data comes from the [tidytuesday](https://github.com/rfordatascience/tidytuesday/blob/master/data/2020/2020-03-17/readme.md)

``` r
office_transcripts <- schrute::theoffice %>%
  mutate(season = as.factor(season),
         character = str_remove_all(character, '"'),
         air_date = as.Date(air_date))

office_transcripts
```

    ## # A tibble: 55,130 x 12
    ##    index season episode episode_name director   writer           character text 
    ##    <int> <fct>    <int> <chr>        <chr>      <chr>            <chr>     <chr>
    ##  1     1 1            1 Pilot        Ken Kwapis Ricky Gervais;S~ Michael   All ~
    ##  2     2 1            1 Pilot        Ken Kwapis Ricky Gervais;S~ Jim       Oh, ~
    ##  3     3 1            1 Pilot        Ken Kwapis Ricky Gervais;S~ Michael   So y~
    ##  4     4 1            1 Pilot        Ken Kwapis Ricky Gervais;S~ Jim       Actu~
    ##  5     5 1            1 Pilot        Ken Kwapis Ricky Gervais;S~ Michael   All ~
    ##  6     6 1            1 Pilot        Ken Kwapis Ricky Gervais;S~ Michael   Yes,~
    ##  7     7 1            1 Pilot        Ken Kwapis Ricky Gervais;S~ Michael   I've~
    ##  8     8 1            1 Pilot        Ken Kwapis Ricky Gervais;S~ Pam       Well~
    ##  9     9 1            1 Pilot        Ken Kwapis Ricky Gervais;S~ Michael   If y~
    ## 10    10 1            1 Pilot        Ken Kwapis Ricky Gervais;S~ Pam       What?
    ## # ... with 55,120 more rows, and 4 more variables: text_w_direction <chr>,
    ## #   imdb_rating <dbl>, total_votes <int>, air_date <date>
…
episodes
```

    ## # A tibble: 186 x 8
    ##    season episode air_date   episode_name      director       writer imdb_rating
    ##    <fct>    <int> <date>     <chr>             <chr>          <chr>        <dbl>
    ##  1 1            1 2005-03-24 Pilot             Ken Kwapis     Ricky~         7.6
    ##  2 1            2 2005-03-29 Diversity Day     Ken Kwapis     B.J. ~         8.3
    ##  3 1            3 2005-04-05 Health Care       Ken Whittingh~ Paul ~         7.9
    ##  4 1            4 2005-04-12 The Alliance      Bryan Gordon   Micha~         8.1
    ##  5 1            5 2005-04-19 Basketball        Greg Daniels   Greg ~         8.4
    ##  6 1            6 2005-04-26 Hot Girl          Amy Heckerling Mindy~         7.8
    ##  7 2            1 2005-09-20 The Dundies       Greg Daniels   Mindy~         8.7
    ##  8 2            2 2005-09-27 Sexual Harassment Ken Kwapis     B.J. ~         8.2
    ##  9 2            3 2005-10-04 Office Olympics   Paul Feig      Micha~         8.4
    ## 10 2            4 2005-10-11 The Fire          Ken Kwapis     B.J. ~         8.4
    ## # ... with 176 more rows, and 1 more variable: total_votes <int>
…
